11,9,7560,20,w
10,10,5940,20,w
6,7,4473,20,w
13,14,7817,20,w
0,1,4417,20,w
8,9,14715,20,w
5,6,5615,20,w
15,10,7967,20,w
14,13,6250,20,w
7,8,7818,20,w
12,11,4412,20,w
2,2,6408,20,w
9,9,8082,20,w
4,6,5096,20,w
3,4,6513,20,w
1,3,9650,20,w
1,2,7774,20,w
11,10,6472,20,w
10,12,8346,20,w
6,7,5755,20,w
13,14,5762,20,w
0,0,6115,20,w
8,9,4974,20,w
5,6,9393,20,w
15,15,4512,20,w
14,13,5007,20,w
7,8,6406,20,w
12,10,6064,20,w
2,1,4518,20,w
9,9,5583,20,w
4,2,6109,20,w
3,3,5745,20,w
3,3,6136,20,w
1,1,7491,20,w
11,3,17111,20,w
10,10,7509,20,w
6,6,5799,20,w
13,11,6267,20,w
0,0,6007,20,w
8,8,6817,20,w
5,1,5897,20,w
15,12,4291,20,w
14,13,5642,20,w
7,8,5315,20,w
12,12,4218,20,w
2,2,5429,20,w
9,10,5199,20,w
4,2,7992,20,w
4,2,4868,20,w
3,3,4147,20,w
1,2,4164,20,w
11,10,4226,20,w
10,11,4375,20,w
6,6,5207,20,w
13,12,3869,20,w
0,0,3265,20,w
8,9,4624,20,w
5,3,4462,20,w
15,1,8377,20,w
14,12,5565,20,w
7,8,8273,20,w
12,11,4101,20,w
2,3,4445,20,w
9,9,6405,20,w
