0,1,9318,24,w
8,8,6799,24,w
5,6,10170,24,w
15,14,6638,24,w
14,14,7603,24,w
7,8,6568,24,w
12,11,7526,24,w
2,1,6367,24,w
9,9,6742,24,w
4,5,6740,24,w
3,1,6728,24,w
1,1,5885,24,w
11,10,6286,24,w
10,12,7562,24,w
6,8,6284,24,w
13,13,7291,24,w
13,13,10149,24,w
0,1,7563,24,w
8,8,5739,24,w
5,2,6818,24,w
15,14,7414,24,w
14,13,6720,24,w
7,8,5935,24,w
12,13,6595,24,w
2,1,5630,24,w
9,10,5901,24,w
4,2,5242,24,w
3,1,7138,24,w
1,1,8314,24,w
11,14,6648,24,w
10,14,7644,24,w
6,7,4820,24,w
6,7,5537,24,w
13,14,5076,24,w
0,0,7501,24,w
8,9,5578,24,w
5,6,6395,24,w
15,15,6266,24,w
14,13,6430,24,w
7,7,5936,24,w
12,13,5440,24,w
2,1,4843,24,w
9,9,6125,24,w
4,6,5153,24,w
3,1,4980,24,w
1,1,4301,24,w
11,10,5745,24,w
10,10,5131,24,w
10,9,6709,24,w
6,6,8088,24,w
13,13,5774,24,w
0,0,5566,24,w
8,8,7246,24,w
5,6,5879,24,w
15,15,5080,24,w
14,14,5984,24,w
7,8,4488,24,w
12,9,6126,24,w
2,1,4942,24,w
9,9,5479,24,w
4,2,5675,24,w
3,0,5530,24,w
1,1,4938,24,w
11,10,5790,24,w
