2,2,12887,19,m
9,10,10918,19,m
4,2,7978,19,m
3,1,8088,19,m
1,1,6353,19,m
11,11,12774,19,m
10,10,10985,19,m
6,6,9005,19,m
13,13,7251,19,m
0,0,6436,19,m
8,9,12091,19,m
5,7,9396,19,m
15,14,6550,19,m
14,13,5747,19,m
7,8,6289,19,m
12,14,10936,19,m
12,14,8055,19,m
2,2,7873,19,m
9,9,6417,19,m
4,4,12058,19,m
3,2,11035,19,m
1,1,8834,19,m
11,11,18950,19,m
10,10,7427,19,m
6,6,10659,19,m
13,13,6152,19,m
0,0,7421,19,m
8,9,11714,19,m
5,5,18300,19,m
15,15,7254,19,m
14,13,7195,19,m
7,8,6053,19,m
7,8,8047,19,m
12,15,8907,19,m
2,2,10574,19,m
9,10,7511,19,m
4,4,7069,19,m
3,5,7221,19,m
1,1,9094,19,m
11,12,13643,19,m
10,13,9577,19,m
6,2,10385,19,m
13,13,7447,19,m
0,0,5733,19,m
8,10,7452,19,m
5,2,7918,19,m
15,13,6056,19,m
14,14,5873,19,m
14,14,7075,19,m
7,9,7006,19,m
12,14,5767,19,m
2,2,4752,19,m
9,8,6999,19,m
4,6,7853,19,m
3,2,6411,19,m
1,2,5244,19,m
11,11,9705,19,m
10,11,4246,19,m
6,7,5615,19,m
13,13,7406,19,m
0,0,5683,19,m
8,13,6766,19,m
5,5,5059,19,m
15,15,5227,19,m
